C:\Users\x_mar\Documents\JAVA\demo-app\src\main\java\org\example\math\MathClass.java
C:\Users\x_mar\Documents\JAVA\demo-app\src\main\java\org\example\Main.java
C:\Users\x_mar\Documents\JAVA\demo-app\src\main\java\org\example\poo\package1\ClasseA.java
C:\Users\x_mar\Documents\JAVA\demo-app\src\main\java\org\example\collections\list\entity\RandomPerson.java
C:\Users\x_mar\Documents\JAVA\demo-app\src\main\java\org\example\string\ChaineCaractere1.java
C:\Users\x_mar\Documents\JAVA\demo-app\src\main\java\org\example\enums\Month.java
C:\Users\x_mar\Documents\JAVA\demo-app\src\main\java\org\example\collections\list\tools\IteratorDemo.java
C:\Users\x_mar\Documents\JAVA\demo-app\src\main\java\org\example\structure\Structure2.java
C:\Users\x_mar\Documents\JAVA\demo-app\src\main\java\org\example\poo\package1\ClasseC.java
C:\Users\x_mar\Documents\JAVA\demo-app\src\main\java\org\example\collections\list\tools\FlexibleRandomComparator.java
C:\Users\x_mar\Documents\JAVA\demo-app\src\main\java\org\example\model\Maison.java
C:\Users\x_mar\Documents\JAVA\demo-app\src\main\java\org\example\collections\list\enums\Order.java
C:\Users\x_mar\Documents\JAVA\demo-app\src\main\java\org\example\collections\list\ListDemo.java
C:\Users\x_mar\Documents\JAVA\demo-app\src\main\java\org\example\poo\inner\OuterClass.java
C:\Users\x_mar\Documents\JAVA\demo-app\src\main\java\org\example\readFromConsole\ReadFromConsole.java
C:\Users\x_mar\Documents\JAVA\demo-app\src\main\java\org\example\method\MethodParam.java
C:\Users\x_mar\Documents\JAVA\demo-app\src\main\java\org\example\string\ChaineCaractere.java
C:\Users\x_mar\Documents\JAVA\demo-app\src\main\java\org\example\variable\Variable.java
C:\Users\x_mar\Documents\JAVA\demo-app\src\main\java\org\example\operator\Operators.java
C:\Users\x_mar\Documents\JAVA\demo-app\src\main\java\org\example\poo\Product.java
C:\Users\x_mar\Documents\JAVA\demo-app\src\main\java\org\example\poo\package2\ClasseB.java
C:\Users\x_mar\Documents\JAVA\demo-app\src\main\java\org\example\poo\package1\ClasseDemo.java
C:\Users\x_mar\Documents\JAVA\demo-app\src\main\java\org\example\enums\DemoEnum.java
C:\Users\x_mar\Documents\JAVA\demo-app\src\main\java\org\example\enums\Priority.java
C:\Users\x_mar\Documents\JAVA\demo-app\src\main\java\org\example\ray\ArrayClass.java
C:\Users\x_mar\Documents\JAVA\demo-app\src\main\java\org\example\poo\Phone.java
C:\Users\x_mar\Documents\JAVA\demo-app\src\main\java\org\example\structure\Structure.java
C:\Users\x_mar\Documents\JAVA\demo-app\src\main\java\org\example\collections\list\tools\LinkedListDemo.java
C:\Users\x_mar\Documents\JAVA\demo-app\src\main\java\org\example\poo\package2\Demo.java
